<svg xmlns="http://www.w3.org/2000/svg" width="162.358" height="117.854" viewBox="0 0 162.358 117.854">
  <g id="Grupo_1908" data-name="Grupo 1908" transform="translate(-16.35)">
    <g id="Grupo_772" data-name="Grupo 772" transform="translate(16.35)">
      <g id="Grupo_435" data-name="Grupo 435">
        <g id="Grupo_434" data-name="Grupo 434" transform="translate(0 0)">
          <g id="Grupo_431" data-name="Grupo 431" transform="translate(0 0.167)">
            <path id="Trazado_82" data-name="Trazado 82" d="M4573.266,4194.1l-1.736-5.212-.3.091,1.12,5.283H4570.7a37.423,37.423,0,0,0,10.495,4.925,7.509,7.509,0,0,1-.719-1.042,10.229,10.229,0,0,1-1.262-2.966c-.416-3.6-.632-7.229-.926-10.868,6.253.74,10.764,8.887,8.419,15.669-.519-.686-.988-1.307-1.52-2.011-.469,1.123,1.33,1.793.286,3.006a70.621,70.621,0,0,0,14.1,2.8c-5.482.242-10.8-.908-16.495-2.418l1.751,1.99-3.844,1.124c.006.062.012.123.019.184l3.548-.4c-1.762,5.65-12.1,8.117-16.861,3.995,3.032-2.3,5.977-4.643,9.042-6.793a10.874,10.874,0,0,1,3.11-1.042c-3.743-1.907-7.625-3.887-11.451-5.838l2,2.661h-6.765c0,.109-.009.218-.014.328l6.306.533c-6.369,6.229-16.421,5.658-20.9.169.026-.063.039-.164.083-.184,3.875-1.757,7.731-3.563,11.639-5.234,1.633-.7,2.454-.561,5.113.015l-9.429-9.187c.078.376.181.882.339,1.654l-5.493-1.2q-.041.147-.082.293l5.125,1.784c-7.244,4.127-17.333,2.094-20.947-4.9a2.84,2.84,0,0,1,.66-.317c3.394-.621,6.8-1.177,10.182-1.85,2.483-.494,4.888-.532,7.19.869l.243-.312c-1.008-1.768-2.054-3.512-3.011-5.31-.986-1.853-1.883-3.758-2.929-5.861l-.272,1.648-5.247-2.386-.114.25,4.765,2.948c-6.878,2.286-17.168-.854-19.666-9.543a4.279,4.279,0,0,1,.871-.142q5.164.236,10.328.505c2.832.146,5.618.437,7.735,2.9l-3-11.8-.612,1.491c-1.351-1.111-2.644-2.173-3.936-3.234l-.223.273q1.571,1.7,3.144,3.4-.094.2-.187.408c-.929-.118-1.861-.207-2.785-.36a18.606,18.606,0,0,1-7.127-2.671,13.891,13.891,0,0,1-6.452-10.078,8.852,8.852,0,0,1-.008-1.235c.248-.048.443-.154.6-.107,3.372,1.025,6.727,2.114,10.111,3.088,2.74.788,5.354,1.716,6.941,5,.178-4.219.335-7.956.494-11.719-1.719-.221-1.764-2.436-3.455-3.362l1.8,3.454c-2.4.262-6.991-2.48-9.153-5.488a11.769,11.769,0,0,1-1.79-10.488c.528.271.92.441,1.285.662,2.654,1.6,5.292,3.235,7.958,4.814,2.115,1.251,3.917,2.752,4.266,5.9,1.205-3.475,2.268-6.538,3.349-9.651-.492-1.139-1.017-2.356-1.542-3.572l-.135.031c.177.97.353,1.94.549,3.019a9.453,9.453,0,0,1-4.592-14.174c.458.484.885.954,1.331,1.4,1.274,1.278,2.572,2.531,3.833,3.824,2.059,2.11,2.056,2.131,2.811,4.936l4.765-7.317-.88-2.531c-.049.551-.1,1.142-.153,1.755-4.191-1.568-4.737-8.36-1.024-11.812,2.448,2.462,4.614,6.942,4.542,9.031.84-.766,1.9-1.654,2.859-2.653a2.555,2.555,0,0,0,.558-1.459,6.768,6.768,0,0,1,3.554-5.578,41.244,41.244,0,0,1,5.023-2.213c2.475-1,4.97-1.943,7.542-2.943a1.048,1.048,0,0,1,.036.5,22.829,22.829,0,0,1-4.468,8.389c-2.706,3.09-5.989,4.568-9.995,3.678a2.161,2.161,0,0,0-2.528.972c-.417.6-.912,1.146-1.681,2.1,4.168-1.577,7.921-.208,11.7-.341q.1.2.2.409a14.3,14.3,0,0,1-1.576,1.931,11.353,11.353,0,0,1-10.665,2.352c-.641-.153-1.153-.917-1.916-1.56-1.46,2.341-2.936,4.708-4.413,7.076l.263.321c2.188-1.642,4.732-1.683,7.221-1.98,1.99-.238,3.979-.49,6.354-.784a18.259,18.259,0,0,1-.872,2.2,11.78,11.78,0,0,1-8.375,5.812,7.791,7.791,0,0,1-2.51.283c-.907-.125-3.5-1.663-3.548-2.624a46.407,46.407,0,0,0-3.649,10.1,27.387,27.387,0,0,1,3.344-2.751,24.7,24.7,0,0,1,3.991-1.641c2.694-1.012,5.4-2,8.1-2.983a1.508,1.508,0,0,1,.555.017c.615,5.927-5.086,12.991-14.861,13.791.069-.86.74-1.224,1.175-1.744a8.04,8.04,0,0,0,1.3-1.871l-3.631,3.146c-.22-.977-.391-1.737-.618-2.748a43.642,43.642,0,0,0-.757,13.34c.662-3.11,2.771-4.847,5.124-6.4,3.078-2.036,6.113-4.146,9.292-6.307,1.031,2.071.8,4.183.481,6.241a13.409,13.409,0,0,1-2.947,6.424c-2.259,2.782-6.174,5.426-9.006,5.979.338-1.753,1.548-3,1.807-4.774l-3.017,4.594c-.516-.928-.948-1.706-1.492-2.687a46.932,46.932,0,0,0,2.812,11.572,10.347,10.347,0,0,1,2.818-5.889c2.448-2.843,4.842-5.736,7.26-8.607,5.048,4.5,1.8,16.856-5.657,20.524.306-1.818.58-3.453.854-5.088-.1-.029-.191-.059-.288-.087-.517,1.643-1.034,3.287-1.591,5.061a4.927,4.927,0,0,1-.663-.329,6,6,0,0,1-.574-.507c-.635.468,3.385,8.344,5.523,10.73-.955-2.964.121-5.234,1.194-7.5q2.18-4.606,4.37-9.2c5.983,3.135,6.03,15.611-.039,20.889-.672-2-.292-4.061-.8-6.028-.131,2.043-.261,4.087-.4,6.292l-1.726-.465a36.888,36.888,0,0,0,9.611,9.042,6,6,0,0,1-.755-1.333c-.338-1.239-.936-2.563-.782-3.758.562-4.345,1.391-8.651,2.12-12.98C4574.854,4175.5,4577.835,4186.819,4573.266,4194.1Z" transform="translate(-4524.896 -4092.752)" fill="#91d1f5" fill-rule="evenodd"/>
          </g>
          <g id="Grupo_432" data-name="Grupo 432" transform="translate(87.498)">
            <path id="Trazado_83" data-name="Trazado 83" d="M5292.5,4160.138a6.1,6.1,0,0,1,.768.056c-1.643,7.386-10.6,11.986-19.4,9.849,1.039-1.507,2.851-1.743,3.865-3.184l-4.683,2.229c-.051-.669-.09-1.172-.131-1.706-2.075,3.861-4.122,7.666-6.275,11.672a7.521,7.521,0,0,1,1.454-.661,13.289,13.289,0,0,1,4.178-.646c4.185.566,8.337,1.419,12.5,2.168.112.02.211.146.314.222-3.119,6.581-12.912,9.192-20.971,4.969l5.268-1.856c-.023-.1-.044-.2-.063-.3-1.783.4-3.569.8-5.5,1.237.068-.628.124-1.116.172-1.559-3.023,2.938-6.026,5.855-9.044,8.785-.011-.012.08.151.126.138a9.265,9.265,0,0,1,6.621.911c3.252,1.526,6.532,2.988,9.819,4.487-4.269,5.616-14.245,6.175-20.99.1,2.18-.486,4.215-.421,6.219-.924h-6.644c.686-1.007,1.142-1.707,1.691-2.546-3.8,1.919-7.479,3.786-11.4,5.76,3.306.123,5.418,2.4,7.769,4.2,1.523,1.165,3.014,2.376,4.527,3.57-4.191,4.077-12.879,2.192-17.024-3.866.751,0,1.344-.036,1.93.013a5.4,5.4,0,0,0,1.761.044c-.579-.174-1.154-.355-1.735-.518-.562-.161-1.129-.3-1.751-.462.15-1.28,1.406-1.338,1.973-2.161-2.851.628-5.646,1.381-8.486,1.839a54.643,54.643,0,0,1-8.725.628c2.385-.35,4.781-.628,7.151-1.068,2.421-.448,4.82-1.057,7.318-1.617-1.331-1.477.754-2.168.327-3.466-.563.8-1.079,1.527-1.615,2.284-3.061-5.274,1.563-14.121,8.285-15.744,0,.407.021.775-.006,1.139-.176,2.47-.368,4.939-.543,7.412-.26,3.614-.533,4.3-2.684,7,.81-.316,1.645-.576,2.427-.958,2.3-1.131,4.585-2.283,6.845-3.494a11.065,11.065,0,0,0,1.674-1.352l-1.7.545c.422-2.11.8-4.016,1.183-5.92l-.252-.083c-.586,1.793-1.17,3.589-1.808,5.548-4.527-7.233-2.094-17.557,5.107-20.482.689,3.835,1.37,7.671,2.069,11.5a7.929,7.929,0,0,1-2.628,7.716,39.673,39.673,0,0,0,10.781-10.387c-.51.227-1.023.456-1.685.752-.11-2.12-.212-4.061-.31-6-.088,0-.174,0-.259,0-.139,1.876-.274,3.752-.421,5.77-6.276-4.767-6.367-16.685-.267-21.151.858,1.833,1.708,3.651,2.563,5.467.7,1.479,1.38,2.965,2.105,4.426a9.47,9.47,0,0,1,1.059,6.981,53.574,53.574,0,0,0,6.134-11.551c-.817.752-1.306,1.2-1.908,1.761-.665-2.1-1.271-4.027-1.879-5.953-.1.025-.191.05-.287.079.367,1.863.734,3.729,1.111,5.658-2.4-.545-6.164-4.907-7.36-8.566-1.361-4.145-.891-8.085,1.655-12.391a10,10,0,0,0,.791,1.471c2.007,2.44,4.021,4.872,6.066,7.276,1.572,1.851,3.065,3.732,3.227,6.431a33.3,33.3,0,0,0,2.394-10.47c-.323.45-.648.9-1.086,1.5-1.044-1.6-2.011-3.091-2.982-4.579-.1.062-.206.125-.309.186l2.234,4.506c-.307.081-.5.209-.636.156a20.207,20.207,0,0,1-8.737-6.358,14.027,14.027,0,0,1-2.786-10.628,14.765,14.765,0,0,1,.439-1.721c.506.3.891.5,1.25.742,3,2.057,5.986,4.142,9,6.179a8.58,8.58,0,0,1,4.1,5.684c.719-2.5.508-7.7-.5-13.027-.27.933-.459,1.6-.713,2.482-1.156-.973-2.226-1.871-3.294-2.766-.065.077-.131.155-.2.236l2.648,3.005a10.378,10.378,0,0,1-1.574-.01,19.484,19.484,0,0,1-8.624-3.611,13.514,13.514,0,0,1-5.025-8.1,20.454,20.454,0,0,1-.219-2.058,2.78,2.78,0,0,1,.742.008c3.442,1.252,6.873,2.535,10.318,3.78a9.364,9.364,0,0,1,5.156,3.918,40.873,40.873,0,0,0-3.48-10.251c-.093.661-.151,1.056-.229,1.606-.5-.173-.955-.324-1.6-.545.3.453.5.747.709,1.051-4.769,2.119-12.894-2.3-14.1-7.632,3.149-.415,11.091,1.1,13.942,2.819-.934-1.609-1.63-2.877-2.384-4.1-.744-1.207-1.547-2.372-2.452-3.75-1.068,2.027-2.807,1.994-4.522,2.068a11.236,11.236,0,0,1-7.363-2.224,5.142,5.142,0,0,1-2.055-2.85c3.846.083,7.582-1.185,11.5-.108a19.288,19.288,0,0,0-1.939-2.241,2.029,2.029,0,0,0-1.571-.4c-5.31,1.124-9.071-1.305-11.972-5.742a22.265,22.265,0,0,1-3.061-6.979c1.975.835,3.788,1.642,5.629,2.367,1.705.671,3.5,1.122,5.143,1.919a12.855,12.855,0,0,1,3.713,2.56,6.588,6.588,0,0,1,1.686,3.37,5.537,5.537,0,0,0,1.742,3.3c.545.551,1.046,1.151,1.763,1.946.02-4.2,3-6.4,4.266-9.58,4.376,3.1,3.27,9.467-.465,12.08a9.811,9.811,0,0,1-.241-1.117c-.041-.406-.008-.817-.008-1.363-.332,1.069-.624,2.007-.967,3.106,1.492,2.3,3.091,4.778,4.875,7.54a7.17,7.17,0,0,1,2.575-5.085c1.764-1.71,3.478-3.473,5.214-5.213,3.712,4.292,1.239,12.052-4.51,14.028.121-.782.231-1.5.342-2.213l-.227-.078a14.215,14.215,0,0,1-.556,1.366,13.81,13.81,0,0,1-.893,1.28c.516,1.343,1.182,2.965,1.761,4.625.583,1.675,1.076,3.383,1.72,5.424a7.379,7.379,0,0,1,4.119-5.963c3.066-1.791,6.095-3.659,9.138-5.495,3.351,5.523-2.6,14.689-10.651,16.116.448-1.574,1.517-2.7,1.794-4.263-.873,1.232-1.745,2.462-2.682,3.781-.328-.219-.628-.418-1.054-.7a57.922,57.922,0,0,1,.525,13.068c1.285-3.468,4.072-4.627,7.123-5.488,3.391-.958,6.739-2.065,10.11-3.093a1.607,1.607,0,0,1,.546.027c.712,7.387-7.947,14.955-16.617,14.2,1.353-1.434,2.537-2.691,3.725-3.949l-.213-.262c-1.4,1.16-2.81,2.319-4.316,3.559-.224-.526-.421-.981-.629-1.466-1.046,4.074-2.075,8.074-3.227,12.545,2.211-3.207,5.155-3.543,8.188-3.674C5285.748,4160.488,5289.123,4160.3,5292.5,4160.138Z" transform="translate(-5220.64 -4091.426)" fill="#91d1f5" fill-rule="evenodd"/>
          </g>
          <g id="Grupo_433" data-name="Grupo 433" transform="translate(77.365 107.286)">
            <path id="Trazado_84" data-name="Trazado 84" d="M5146.18,4951.568l-2.335-1.633-2.274,1.717.831-2.727-2.335-1.632,2.849-.052.83-2.726.931,2.693,2.849-.053-2.274,1.717Z" transform="translate(-5140.066 -4944.517)" fill="#91d1f5" fill-rule="evenodd"/>
          </g>
        </g>
      </g>
    </g>
    <g id="Grupo_1850" data-name="Grupo 1850" transform="translate(57.217 24.387)">
      <text id="_5" data-name="5" transform="translate(39.24 45.364)" fill="#91d1f5" font-size="56" font-family="Helvetica-Bold, Helvetica" font-weight="700"><tspan x="-15.572" y="0">5</tspan></text>
    </g>
  </g>
</svg>
